^C:\USERS\HYPERPC\SOURCE\REPOS\HW_13\HELPERS.CPP|C:\USERS\HYPERPC\SOURCE\REPOS\HW_13\HW_13.CPP
C:\USERS\HYPERPC\SOURCE\REPOS\HW_13\DEBUG\VC142.PDB
C:\USERS\HYPERPC\SOURCE\REPOS\HW_13\DEBUG\VC142.IDB
C:\USERS\HYPERPC\SOURCE\REPOS\HW_13\DEBUG\HW_13.OBJ
C:\USERS\HYPERPC\SOURCE\REPOS\HW_13\DEBUG\HELPERS.OBJ
^C:\USERS\HYPERPC\SOURCE\REPOS\HW_13\HW_13.CPP
C:\USERS\HYPERPC\SOURCE\REPOS\HW_13\DEBUG\VC142.PDB
^C:\USERS\HYPERPC\SOURCE\REPOS\HW_13\HELPERS.CPP
C:\USERS\HYPERPC\SOURCE\REPOS\HW_13\DEBUG\VC142.PDB
C:\USERS\HYPERPC\SOURCE\REPOS\HW_13\DEBUG\VC142.IDB
C:\USERS\HYPERPC\SOURCE\REPOS\HW_13\DEBUG\HELPERS.OBJ
